%YAML 1.1
%TAG !u! tag:unity3d.com,2011:
--- !u!21 &2100000
Material:
  serializedVersion: 6
  m_ObjectHideFlags: 0
  m_PrefabParentObject: {fileID: 0}
  m_PrefabInternal: {fileID: 0}
  m_Name: New Material 1
  m_Shader: {fileID: 4800000, guid: 29f5730d67730ab45b7ca38975ddb10a, type: 3}
  m_ShaderKeywords: 
  m_LightmapFlags: 4
  m_EnableInstancingVariants: 0
  m_DoubleSidedGI: 0
  m_CustomRenderQueue: -1
  stringTagMap: {}
  disabledShaderPasses: []
  m_SavedProperties:
    serializedVersion: 3
    m_TexEnvs:
    - _Diffuse:
        m_Texture: {fileID: 2800000, guid: 8884022168c77b349a293e127584ff02, type: 3}
        m_Scale: {x: 0.2, y: 0.0011}
        m_Offset: {x: 0, y: 0}
    - _MainTex:
        m_Texture: {fileID: 0}
        m_Scale: {x: 1, y: 1}
        m_Offset: {x: 0, y: 0}
    - _Normals:
        m_Texture: {fileID: 0}
        m_Scale: {x: 1, y: 1}
        m_Offset: {x: 0, y: 0}
    m_Floats:
    - _BulgeScale: 1
    - _BulgeScale_copy: 1
    - _BulgeShape: 1
    - _GlowIntensity: 0
    m_Colors:
    - _Color: {r: 1, g: 1, b: 1, a: 1}
    - _GlowColor: {r: 0, g: 0, b: 0, a: 1}
    - _OceanCenter: {r: 0, g: 0, b: 0, a: 0}
    - _Params1: {r: 1, g: 1, b: 0.8, a: 0}
    - _Params2: {r: 1, g: 1, b: 0.8, a: 0}
    - _TimeControl1: {r: 4, g: 10, b: 0.02, a: 100}
    - _WaveControl1: {r: 1, g: 0.01, b: 0.001, a: 0}
