%YAML 1.1
%TAG !u! tag:unity3d.com,2011:
--- !u!21 &2100000
Material:
  serializedVersion: 6
  m_ObjectHideFlags: 0
  m_PrefabParentObject: {fileID: 0}
  m_PrefabInternal: {fileID: 0}
  m_Name: INfiniTREE LEAF
  m_Shader: {fileID: 4800000, guid: a40b7c690e967d34e9743297cb7d86e1, type: 3}
  m_ShaderKeywords: 
  m_LightmapFlags: 4
  m_EnableInstancingVariants: 0
  m_DoubleSidedGI: 0
  m_CustomRenderQueue: -1
  stringTagMap: {}
  disabledShaderPasses: []
  m_SavedProperties:
    serializedVersion: 3
    m_TexEnvs:
    - _BumpMap:
        m_Texture: {fileID: 0}
        m_Scale: {x: 1, y: 1}
        m_Offset: {x: 0, y: 0}
    - _Cube:
        m_Texture: {fileID: 0}
        m_Scale: {x: 1, y: 1}
        m_Offset: {x: 0, y: 0}
    - _Diffuse:
        m_Texture: {fileID: 2800000, guid: 476cae408a45d6542a502c68f4c130e2, type: 3}
        m_Scale: {x: 1, y: 1}
        m_Offset: {x: 0, y: 0}
    - _GlossMap:
        m_Texture: {fileID: 0}
        m_Scale: {x: 1, y: 1}
        m_Offset: {x: 0, y: 0}
    - _Illum:
        m_Texture: {fileID: 0}
        m_Scale: {x: 1, y: 1}
        m_Offset: {x: 0, y: 0}
    - _MainTex:
        m_Texture: {fileID: 2800000, guid: 476cae408a45d6542a502c68f4c130e2, type: 3}
        m_Scale: {x: 1, y: 1}
        m_Offset: {x: 0, y: 0}
    - _Normal:
        m_Texture: {fileID: 0}
        m_Scale: {x: 1, y: 1}
        m_Offset: {x: 0, y: 0}
    - _ParallaxMap:
        m_Texture: {fileID: 0}
        m_Scale: {x: 1, y: 1}
        m_Offset: {x: 0, y: 0}
    - _ShadowOffset:
        m_Texture: {fileID: 0}
        m_Scale: {x: 1, y: 1}
        m_Offset: {x: 0, y: 0}
    - _SnowTexture:
        m_Texture: {fileID: 0}
        m_Scale: {x: 1, y: 1}
        m_Offset: {x: 0, y: 0}
    - _TranslucencyMap:
        m_Texture: {fileID: 0}
        m_Scale: {x: 1, y: 1}
        m_Offset: {x: 0, y: 0}
    - _tex0:
        m_Texture: {fileID: 0}
        m_Scale: {x: 1, y: 1}
        m_Offset: {x: 0, y: 0}
    - _tex1:
        m_Texture: {fileID: 0}
        m_Scale: {x: 1, y: 1}
        m_Offset: {x: 0, y: 0}
    m_Floats:
    - PixelSnap: 0
    - _BaseColorYShift: 1
    - _BaseLight: 0
    - _BulgeScale: 0.2
    - _BulgeScale_copy: 1.2
    - _BulgeShape: 5
    - _Cutoff: 0.66071427
    - _EmissionLM: 0
    - _FadeThreshold: 100
    - _InteractMaxYoffset: 1.5
    - _InvFade: 1
    - _Parallax: 0.02
    - _RandYScale: 1
    - _RippleScale: 0
    - _ShadowIntensity: 0.39285713
    - _ShadowStrength: 1
    - _Shininess: 0.7165485
    - _SmoothMotionFactor: 105
    - _SpecularPower: 1
    - _SquashAmount: 1
    - _StopMotionThreshold: 10
    - _TintFrequency: 0.1
    - _TintPower: 0
    - _TranslucencyViewDependency: 0.7
    - _WaveXFactor: 1
    - _WaveYFactor: 1
    m_Colors:
    - _Color: {r: 0.5514706, g: 0.1142372, b: 0.047540575, a: 1}
    - _ColorGlobal: {r: 1, g: 1, b: 1, a: 0}
    - _EmisColor: {r: 0.2, g: 0.2, b: 0.2, a: 0}
    - _Emission: {r: 0.33088237, g: 0.18369676, b: 0.22915114, a: 0}
    - _InteractPos: {r: 0, g: 0, b: 0, a: 1}
    - _InteractSpeed: {r: 0, g: 0, b: 0, a: 1}
    - _OceanCenter: {r: 0, g: 0, b: 0, a: 0}
    - _ReflectColor: {r: 1, g: 1, b: 1, a: 0.5}
    - _Scale: {r: 1, g: 1, b: 1, a: 1}
    - _SpecColor: {r: 1, g: 0.6724138, b: 0.6724138, a: 0}
    - _TimeControl1: {r: 1, g: 1, b: 1, a: 100}
    - _TintColor: {r: 0.5, g: 0.5, b: 0.5, a: 0.5}
    - _TranslucencyColor: {r: 0.73, g: 0.85, b: 0.41, a: 1}
    - _WaveControl1: {r: 1, g: 0.01, b: 0.001, a: 0.41}
--- !u!1002 &2100001
EditorExtensionImpl:
  serializedVersion: 6
